<?xml version="1.0" encoding="utf-8"?>
<!-- Generated by IcoMoon.io -->
<!DOCTYPE svg PUBLIC "-//W3C//DTD SVG 1.1//EN" "http://www.w3.org/Graphics/SVG/1.1/DTD/svg11.dtd">
<svg version="1.1" xmlns="http://www.w3.org/2000/svg" xmlns:xlink="http://www.w3.org/1999/xlink" width="32" height="32" viewBox="0 0 32 32">
<path fill="#ffffff" d="M7.487 10.71l-0.090 0.846 2.165 2.572 0.376-2.774c0.018-0.13 0.054-0.251 0.089-0.373l-2.54-0.271z"></path>
<path fill="#ffffff" d="M9.329 15.849l0.114-0.837-2.143-2.546-0.317 2.971c-0.079 0.737 0.455 1.397 1.191 1.476l1.28 0.137c-0.128-0.375-0.182-0.781-0.126-1.2z"></path>
<path fill="#ffffff" d="M13.78 10.813c-0.185-0.514-0.753-0.782-1.268-0.595s-0.781 0.753-0.595 1.268l1.202 3.329c0.109 0.303 0.359 0.534 0.669 0.619l3.116 0.857c0.088 0.024 0.176 0.036 0.263 0.036 0.435 0 0.834-0.289 0.955-0.729 0.145-0.528-0.165-1.073-0.693-1.218l-2.621-0.72-1.028-2.846z"></path>
<path fill="#ffffff" d="M17.042 21.631l-0.407-2.81c-0.047-0.324-0.23-0.613-0.502-0.796l-2.231-1.49c0.003-0.017 0.006-0.038 0.010-0.066l0.041-0.305-0.339-0.093c-0.517-0.142-0.933-0.527-1.116-1.031l-0.377-1.046-2.028 1.149c0 0-0.081 0.596-0.108 0.795-0.023 0.168-0.027 0.72 0.047 0.959 0.118 0.377 0.47 1.508 0.47 1.508l0.632 2.026-0.883 3.359c-0.163 0.618 0.206 1.25 0.824 1.412 0.099 0.026 0.198 0.038 0.295 0.038 0.512 0 0.981-0.343 1.117-0.862l0.968-3.68c0.055-0.21 0.050-0.431-0.014-0.638l-0.415-1.33 1.397 0.933 0.333 2.3c0.084 0.576 0.578 0.99 1.143 0.99 0.055 0 0.111-0.004 0.167-0.012 0.631-0.092 1.069-0.678 0.978-1.31z"></path>
<path fill="#ffffff" d="M24.464 14.399c-0.292-0.22-0.706-0.161-0.925 0.13l-2.479 3.294c-0.049 0.066-0.086 0.139-0.108 0.218l-1.021 3.61-1.566 0.224c-0.081 0.012-0.16 0.038-0.231 0.079l-4.534 2.56c-0.318 0.179-0.43 0.582-0.25 0.9 0.121 0.215 0.345 0.336 0.576 0.336 0.11 0 0.222-0.028 0.324-0.086l4.426-2.499 1.869-0.267c0.258-0.037 0.471-0.223 0.542-0.474l1.104-3.904 2.404-3.195c0.219-0.292 0.161-0.706-0.131-0.925z"></path>
<path fill="#ffffff" d="M7.759 10.364l2.708 0.289c0.15 0.016 0.298 0.001 0.442-0.032-0.16 0.241-0.274 0.517-0.315 0.822l-0.39 2.878 1.689-0.957-0.597-1.653c-0.16-0.443-0.116-0.908 0.079-1.298 0.025-0.018 0.052-0.031 0.076-0.050 0.167-0.135 0.292-0.31 0.378-0.503 0.056-0.126 0.098-0.259 0.113-0.399 0.012-0.107 0.006-0.212-0.007-0.314-0.078-0.601-0.555-1.094-1.184-1.161l-2.709-0.289c-0.354-0.038-0.707 0.066-0.984 0.29s-0.453 0.547-0.491 0.902c-0.079 0.736 0.454 1.397 1.191 1.476z"></path>
<path fill="#ffffff" d="M15.725 7.709c0 1.063-0.862 1.925-1.925 1.925s-1.925-0.862-1.925-1.925c0-1.063 0.862-1.925 1.925-1.925s1.925 0.862 1.925 1.925z"></path>
</svg>
